[
  {
    "relation": ["delegate_permission/common.handle_all_urls"],
    "target": {
      "namespace": "android_app",
      "package_name": "com.lordtube",
      "sha256_cert_fingerprints": [
        "B8:BC:DF:56:F9:83:50:0B:A2:84:EB:AD:80:4C:4A:C9:47:DA:99:58:53:90:8F:39:3B:E9:F9:BD:50:6D:11:E9"
      ]
    }
  }
]
